<?xml version="1.0" encoding="UTF-8"?>
<!DOCTYPE svg PUBLIC "-//W3C//DTD SVG 1.1//EN" "http://www.w3.org/Graphics/SVG/1.1/DTD/svg11.dtd">
<!-- Creator: CorelDRAW X6 -->
<svg xmlns="http://www.w3.org/2000/svg" xml:space="preserve" width="38px" height="102px" version="1.1" style="shape-rendering:geometricPrecision; text-rendering:geometricPrecision; image-rendering:optimizeQuality; fill-rule:evenodd; clip-rule:evenodd"
viewBox="0 0 220806 584477"
 xmlns:xlink="http://www.w3.org/1999/xlink">
 <defs>
  <style type="text/css">
   <![CDATA[
    .str0 {stroke:black;stroke-width:5162.29}
    .fil0 {fill:white}
   ]]>
  </style>
 </defs>
 <g id="Layer_x0020_1">
  <metadata id="CorelCorpID_0Corel-Layer"/>
  <path class="fil0 str0" d="M111172 581896c24294,0 117222,-37206 106152,-93937 -6151,-31489 -15832,-49936 -23725,-80259 -10115,-38914 -6429,-51223 -7669,-95570 -2141,-76310 -43033,-309548 -103435,-309548 -26543,0 -17316,45790 -17214,74555 677,192841 -57036,338977 -62395,419670 -2561,38541 10792,51420 33358,62510 14748,7249 53479,22580 74928,22580z"/>
 </g>
</svg>
